aiohttp==3.8.4
aiosignal==1.3.1
appdirs==1.4.3
async-timeout==4.0.2
asyncinit==0.2.4
attrs==23.1.0
certifi==2023.5.7
charset-normalizer==3.1.0
click==8.1.3
ecdsa==0.18.0
Events==0.4
expiringdict==1.2.2
falcon==3.1.1
frozenlist==1.3.3
graphenelib==1.5.4
idna==3.4
Jinja2==3.1.2
MarkupSafe==2.1.2
multidict==6.0.4
peerplays==0.5.3
prettytable==3.7.0
pycryptodome==3.17
pylibscrypt==1.8.0
PyYAML==6.0
requests==2.30.0
scrypt==0.8.13
six==1.16.0
swagger-ui-py==22.7.13
treelib==1.6.4
urllib3==2.0.2
wcwidth==0.2.6
websocket-client==0.59.0
websockets==11.0.3
yarl==1.9.2
